<?xml version="1.0" standalone="no"?>
<!DOCTYPE svg PUBLIC "-//W3C//DTD SVG 20010904//EN"
 "http://www.w3.org/TR/2001/REC-SVG-20010904/DTD/svg10.dtd">
<svg version="1.0" xmlns="http://www.w3.org/2000/svg"
 width="552.000000pt" height="552.000000pt" viewBox="0 0 552.000000 552.000000"
 preserveAspectRatio="xMidYMid meet">
<metadata>
Created by potrace 1.11, written by Peter Selinger 2001-2013
</metadata>
<g transform="translate(0.000000,552.000000) scale(0.100000,-0.100000)"
fill="#000000" stroke="none">
<path d="M993 5510 c-109 -22 -183 -77 -203 -152 -11 -39 -11 -70 6 -418 5
-109 11 -251 19 -430 3 -69 7 -163 10 -210 2 -47 7 -146 10 -220 3 -74 8 -173
10 -220 4 -84 11 -227 20 -425 6 -118 13 -283 20 -450 3 -66 7 -163 10 -215 8
-158 15 -309 20 -425 3 -60 7 -155 10 -210 3 -55 7 -156 10 -225 3 -69 7 -168
10 -220 5 -102 12 -243 20 -435 3 -66 8 -163 10 -215 2 -52 7 -153 10 -225 3
-71 8 -164 10 -205 3 -41 7 -147 10 -235 7 -188 10 -218 25 -245 24 -45 131
-91 245 -106 28 -3 59 -9 70 -12 11 -3 540 -7 1174 -8 1284 -4 1237 -6 1298
60 17 19 34 49 37 68 6 38 43 260 50 298 3 14 14 77 25 140 11 63 32 180 46
260 14 80 28 159 31 175 3 17 19 107 35 200 17 94 36 206 44 250 31 175 45
252 54 300 5 28 12 68 15 90 4 23 9 52 11 65 7 35 75 418 81 459 3 18 7 43 10
55 5 27 41 232 48 271 3 17 8 46 11 65 3 19 15 85 26 145 12 61 23 124 26 140
7 51 54 309 58 325 1 3 5 30 10 60 5 30 9 57 10 60 1 3 5 25 9 50 4 25 21 119
37 210 16 91 31 176 34 190 2 14 16 93 30 175 15 83 37 209 50 280 13 72 26
148 29 170 4 22 15 85 25 140 11 55 22 118 25 140 4 22 11 63 16 90 5 28 12
64 15 80 2 17 9 52 14 79 10 53 7 172 -5 221 -19 79 -62 133 -129 161 -46 19
-51 19 -1335 29 -1547 12 -2225 13 -2267 5z m1637 -65 c1439 -10 1884 -15
1915 -21 54 -11 93 -50 110 -108 18 -61 21 -171 6 -236 -5 -25 -12 -63 -15
-85 -4 -23 -9 -52 -11 -65 -3 -14 -9 -50 -15 -80 -5 -30 -21 -118 -35 -195
-14 -77 -28 -156 -31 -175 -3 -19 -7 -46 -10 -60 -6 -38 -43 -242 -48 -270
-10 -50 -26 -146 -32 -185 -3 -22 -9 -58 -14 -80 -5 -22 -11 -53 -14 -70 -3
-16 -23 -136 -46 -265 -23 -129 -43 -248 -46 -265 -3 -16 -14 -79 -25 -140
-10 -60 -22 -123 -24 -140 -5 -25 -22 -120 -39 -210 -5 -30 -15 -86 -21 -125
-3 -19 -10 -60 -16 -90 -6 -30 -12 -64 -13 -75 -6 -35 -65 -368 -75 -420 -5
-27 -12 -70 -16 -95 -3 -25 -8 -52 -10 -60 -2 -8 -7 -31 -10 -50 -3 -19 -15
-87 -26 -150 -11 -63 -22 -124 -24 -135 -1 -11 -12 -72 -24 -135 -30 -169 -29
-161 -61 -350 -30 -171 -47 -268 -75 -420 -8 -41 -16 -91 -19 -110 -3 -19 -8
-45 -10 -56 -2 -12 -7 -37 -10 -55 -3 -19 -14 -83 -25 -144 -11 -60 -22 -127
-25 -148 -3 -21 -12 -49 -20 -62 -33 -50 -14 -49 -1181 -49 -600 0 -1131 3
-1181 7 -182 13 -315 53 -330 99 -4 12 -8 54 -10 93 -4 116 -14 324 -19 420
-3 50 -7 146 -10 215 -5 121 -10 224 -20 435 -2 55 -7 159 -10 230 -3 72 -8
168 -10 215 -6 117 -13 279 -20 440 -3 74 -8 164 -10 200 -2 36 -7 135 -10
220 -4 85 -8 189 -10 230 -12 263 -16 355 -20 430 -2 47 -7 144 -10 215 -7
165 -14 318 -20 420 -2 44 -7 148 -11 230 -13 301 -25 564 -29 650 -23 437
-23 523 -1 557 24 37 94 69 164 75 31 3 58 7 60 8 2 2 166 1 365 0 199 -2 729
-7 1177 -10z"/>
<path d="M2105 4922 c-93 -18 -185 -46 -241 -73 -280 -135 -355 -399 -203
-706 51 -100 57 -107 87 -84 l23 17 -45 85 c-147 276 -86 508 165 627 213 101
454 102 649 2 74 -38 132 -106 174 -208 20 -50 43 -95 50 -101 19 -16 54 0 96
44 70 74 232 171 355 213 98 33 145 42 235 46 293 14 555 -155 610 -392 48
-206 -101 -430 -376 -566 -56 -27 -377 -160 -674 -279 -226 -90 -391 -278
-463 -527 -39 -132 -41 -165 -52 -660 -4 -151 -8 -329 -10 -395 -2 -66 -6
-248 -10 -405 -4 -157 -8 -321 -9 -365 l-2 -80 -359 -2 c-198 -1 -368 -2 -377
-2 -13 -1 -18 -9 -18 -31 l0 -30 375 0 376 0 -2 -152 c-3 -175 -14 -210 -87
-265 -85 -64 -174 -76 -607 -77 l-270 -1 -3 -24 c-2 -13 2 -27 10 -32 7 -5
164 -7 348 -5 361 4 421 11 518 60 77 39 134 107 147 177 2 10 6 127 9 261 8
289 14 527 21 813 3 116 8 298 10 405 11 471 15 607 20 645 13 90 49 206 92
295 39 79 61 109 132 180 48 47 109 97 136 112 28 14 203 88 390 163 368 149
408 166 505 231 246 162 353 398 279 616 -108 320 -515 478 -904 352 -117 -38
-298 -143 -378 -219 -16 -15 -30 -25 -31 -24 -2 2 -20 39 -39 82 -66 144 -200
239 -382 272 -45 8 -239 14 -270 7z"/>
</g>
</svg>
